FirstName,LastName,MemberId,userName,Password,Tax,DateofBirth,Background,Drug,Gender,Email,Phone,Alternativephone,zipcode,address
Abc,kumar,temp1,temp,123456,0,2016-10-31,Yes,No,Male,abc@email.com,xxxxxxxxxx,xxxxxxxxxx,xxxxx,abc house
Abc,kumar,temp1,temp,123456,0,2016-10-31,Yes,Pending,Female,abc@email.com,xxxxxxxxxx,xxxxxxxxxx,xxxxx,abc house
Abc,kumar,temp1,temp,123456,0,2016-10-31,No,Yes,Male,abc@email.com,xxxxxxxxxx,xxxxxxxxxx,xxxxx,abc house
Abc,kumar,temp1,temp,123456,0,2016-10-31,Pending,No,Male,abc@email.com,xxxxxxxxxx,xxxxxxxxxx,xxxxx,abc house
Abc,kumar,temp1,temp,123456,0,2016-10-31,Yes,No,Male,abc@email.com,xxxxxxxxxx,xxxxxxxxxx,xxxxx,abc house
Abc,kumar,temp1,temp,123456,0,2016-10-31,Yes,Pending,Female,abc@email.com,xxxxxxxxxx,xxxxxxxxxx,xxxxx,abc house
